%YAML 1.1
%TAG !u! tag:unity3d.com,2011:
--- !u!114 &11400000
MonoBehaviour:
  m_ObjectHideFlags: 0
  m_CorrespondingSourceObject: {fileID: 0}
  m_PrefabInstance: {fileID: 0}
  m_PrefabAsset: {fileID: 0}
  m_GameObject: {fileID: 0}
  m_Enabled: 1
  m_EditorHideFlags: 0
  m_Script: {fileID: 11500000, guid: e45bdc4ca9cf4fa4b78ace70092b6691, type: 3}
  m_Name: LevelSettings
  m_EditorClassIdentifier: 
  difficulty: 20
  closestEnemyDistanceToPlayer: 10
  closestEnemyDistanceToPlatform: 5
  PlayerPosition: {x: 0, y: 0, z: -20}
  WinPosition: {x: 0, y: 0, z: 40}
